/home/inagaki/my_spark/spark-cache/common/unsafe/src/test/java/org/apache/spark/unsafe/PlatformUtilSuite.java
/home/inagaki/my_spark/spark-cache/common/unsafe/src/test/java/org/apache/spark/unsafe/hash/Murmur3_x86_32Suite.java
/home/inagaki/my_spark/spark-cache/common/unsafe/src/test/java/org/apache/spark/unsafe/array/LongArraySuite.java
/home/inagaki/my_spark/spark-cache/common/unsafe/src/test/java/org/apache/spark/unsafe/types/UTF8StringSuite.java
/home/inagaki/my_spark/spark-cache/common/unsafe/src/test/java/org/apache/spark/unsafe/types/CalendarIntervalSuite.java
